<svg xmlns="http://www.w3.org/2000/svg" viewBox="-2343.8 -3339 23.4 22">
  <g transform="translate(-5209.1 -7454)">
    <path fill="#000" d="M2868.3,4137h11.6a2.946,2.946,0,0,0,3-3v-3.4l-1.4.7v2.7a1.58,1.58,0,0,1-1.6,1.6h-11.6a1.58,1.58,0,0,1-1.6-1.6v-16a1.58,1.58,0,0,1,1.6-1.6h11.6a1.58,1.58,0,0,1,1.6,1.6v3.3l1.4-.3v-3a2.946,2.946,0,0,0-3-3h-11.6a2.946,2.946,0,0,0-3,3v16A2.946,2.946,0,0,0,2868.3,4137Z"/>
    <path fill="#000" d="M2887.1,4116.9h1.6v.7c-.1,7.6-3.9,11.9-7.9,12.4v4.3l-8.1-8.1,8.1-8.1v4.3c2.5-.1,5.4-1.2,6.2-4.9Zm-7.8,14v-2.2h.7c3-.1,6-2.7,6.9-7.8-1.9,2.5-5,2.9-6.9,2.9h-.7v-2.3l-4.8,4.7Z"/>
  </g>
</svg>
