<?xml version="1.0" encoding="utf-8"?>
<!-- Generator: Adobe Illustrator 21.1.0, SVG Export Plug-In . SVG Version: 6.00 Build 0)  -->
<svg version="1.1" id="Слой_1" xmlns="http://www.w3.org/2000/svg" xmlns:xlink="http://www.w3.org/1999/xlink" x="0px" y="0px"
	 viewBox="0 0 12 12" style="enable-background:new 0 0 12 12;" xml:space="preserve">
<style type="text/css">
	.st0{fill:#4272A4;}
</style>
<polygon class="st0" points="12,0.7 11.3,0 6,5.3 0.7,0 0,0.7 5.3,6 0,11.3 0.7,12 6,6.7 11.3,12 12,11.3 6.7,6 "/>
</svg>
