<?xml version="1.0" encoding="utf-8"?>
<!-- Generator: Adobe Illustrator 21.1.0, SVG Export Plug-In . SVG Version: 6.00 Build 0)  -->
<svg version="1.1" id="Слой_1" xmlns="http://www.w3.org/2000/svg" xmlns:xlink="http://www.w3.org/1999/xlink" x="0px" y="0px"
	 viewBox="0 0 88 88" style="enable-background:new 0 0 88 88;" xml:space="preserve">
<style type="text/css">
	.st0{fill:#C5D1D9;}
	.st1{fill:none;}
</style>
<g id="Group_122" transform="translate(-2853.792 962.603)">
	<path id="Path_209" class="st0" d="M2923.6-938.2c-5.6-5.6-13.1-9-21.1-9.4c0.2-1.3-0.3-2.6-1.2-3.6l-1.4-1.3
		c-0.8-0.8-1.8-1.3-2.9-1.5h-9.4c-1.6,0.2-3.1,1-4.1,2.3l-18.9,18.9c-1.2,1-2,2.5-2.2,4v9.4c0.1,1.1,0.6,2.2,1.4,3l1.4,1.4
		c0.9,0.9,2.3,1.4,3.6,1.2c0.9,17.8,16,31.4,33.8,30.5s31.4-16,30.5-33.8C2932.6-925,2929.3-932.5,2923.6-938.2L2923.6-938.2z
		 M2887.8-946.8c1.7,0,3,1.3,3,3s-1.3,3-3,3s-3-1.3-3-3l0,0C2884.8-945.5,2886.1-946.8,2887.8-946.8L2887.8-946.8z M2872-931.1
		c1.7,0,3,1.3,3,3s-1.3,3-3,3s-3-1.3-3-3l0,0C2869-929.7,2870.4-931.1,2872-931.1L2872-931.1z M2921.5-894.8
		c-11.4,11.4-29.9,11.4-41.3,0c-5.5-5.5-8.5-12.9-8.5-20.6l13.5-13.5c0.1,1.2,1.1,2.2,2.4,2.1s2.2-1.1,2.1-2.4c-0.1-1.1-1-2-2.1-2.1
		l13.4-13.4c7.7,0,15.2,3,20.6,8.5C2932.9-924.7,2932.9-906.2,2921.5-894.8L2921.5-894.8z"/>
	<path id="Path_210" class="st0" d="M2900.9-924.8c2.5,0,4.8,0.9,6.5,2.7l0,0l0,0c1.8,1.7,2.7,4,2.7,6.6c0,2.5-1,4.8-2.7,6.5
		c-1.8,1.8-4.2,2.8-6.7,2.8c-2.5,0-4.8-0.9-6.5-2.7c-1.8-1.8-2.7-4.1-2.8-6.6c0-2.5,0.9-4.8,2.7-6.6
		C2896.1-923.8,2898.4-924.8,2900.9-924.8 M2900.9-927.3c-3.1,0-6.1,1.2-8.4,3.5c-4.6,4.6-4.5,12.1,0.1,16.7
		c2.3,2.3,5.3,3.4,8.3,3.4c3.1,0,6.1-1.2,8.4-3.5c2.2-2.2,3.4-5.2,3.4-8.3c0-3.2-1.2-6.2-3.5-8.4
		C2906.9-926.2,2903.9-927.3,2900.9-927.3L2900.9-927.3z"/>
	<ellipse id="Ellipse_45" class="st0" cx="2919.7" cy="-915.5" rx="2.2" ry="2.2"/>
	<ellipse id="Ellipse_46" class="st0" cx="2882" cy="-915.5" rx="2.2" ry="2.2"/>
	<ellipse id="Ellipse_47" class="st0" cx="2900.8" cy="-934.4" rx="2.2" ry="2.2"/>
	<ellipse id="Ellipse_48" class="st0" cx="2900.8" cy="-896.7" rx="2.2" ry="2.2"/>
	<ellipse id="Ellipse_49" class="st0" cx="2914.3" cy="-929" rx="2.2" ry="2.2"/>
	<ellipse id="Ellipse_50" class="st0" cx="2887.3" cy="-902.1" rx="2.2" ry="2.2"/>
	<ellipse id="Ellipse_51" class="st0" cx="2914.3" cy="-902.1" rx="2.2" ry="2.2"/>
</g>
<rect class="st1" width="88" height="88"/>
</svg>
