<svg class="index-nav__icon-svg" xmlns="http://www.w3.org/2000/svg" viewBox="0 0 70 70">
    <path class="index-nav__icon" d="M66,39H62.37a1,1,0,0,1-.79-.39l-3.92-4.09A4,4,0,0,0,54.52,33H51V26a3,3,0,0,0-3-3H44.37a1,1,0,0,1-.79-.39l-3.92-4.09A4,4,0,0,0,36.52,17h-14a4,4,0,0,0-3.11,1.49L15.09,23c-.75,1-7.5,2.64-11.17,3A3.08,3.08,0,0,0,1,29v5a3,3,0,0,0,3,3H8.1a5,5,0,0,0,9.8,0H35l-1.92,2c-.75,1-7.5,2.64-11.17,3A3.08,3.08,0,0,0,19,45v5a3,3,0,0,0,3,3h4.1a5,5,0,0,0,9.8,0H53.1a5,5,0,0,0,9.8,0H66a3,3,0,0,0,3-3V42A3,3,0,0,0,66,39ZM13,39a3,3,0,1,1,3-3A3,3,0,0,1,13,39Zm4.9-4a5,5,0,0,0-9.8,0H4a1,1,0,0,1-1-1V29a1.08,1.08,0,0,1,1.09-1c1.84-.16,11-1.63,12.52-3.65l4.28-4.56A2,2,0,0,1,22.48,19h14a2,2,0,0,1,1.59.78L42,23.88A3,3,0,0,0,44.37,25H48a1,1,0,0,1,1,1v7H40.48a4,4,0,0,0-3.11,1.49l-.48.51ZM31,55a3,3,0,1,1,3-3A3,3,0,0,1,31,55Zm27,0a3,3,0,1,1,3-3A3,3,0,0,1,58,55Zm9-5a1,1,0,0,1-1,1H62.9a5,5,0,0,0-9.8,0H35.9a5,5,0,0,0-9.8,0H22a1,1,0,0,1-1-1V45a1.08,1.08,0,0,1,1.09-1c1.84-.16,11-1.63,12.52-3.65L37.75,37H38v-.27l.89-.95A2,2,0,0,1,40.48,35h14a2,2,0,0,1,1.59.78L60,39.88A3,3,0,0,0,62.37,41H66a1,1,0,0,1,1,1Z"></path>
    <path class="index-nav__icon" d="M20,27.06v.88A4.07,4.07,0,0,0,24.06,32H29v2l5-3-5-3v2H24.06A2.06,2.06,0,0,1,22,27.94v-.87A2.06,2.06,0,0,1,24.06,25H36V23H24.06A4.07,4.07,0,0,0,20,27.06Z"></path>
</svg>