<svg xmlns="http://www.w3.org/2000/svg" viewBox="-3398.215 17969.461 10.758 10.758">
  <defs>
    <style>
      .cls-1 {
        fill: rgba(0,0,0,0);
        stroke: #3779cf;
        stroke-width: 2px;
      }
    </style>
  </defs>
  <path id="Path_806" data-name="Path 806" class="cls-1" d="M.009,0,0,5.263l7.944-.012" transform="translate(-3397.507 17975.082) rotate(-45)"/>
</svg>
