<svg xmlns="http://www.w3.org/2000/svg" xmlns:xlink="http://www.w3.org/1999/xlink" viewBox="4287 1180.5 17 15.571">
  <defs>
    <style>
      .cls-1 {
        fill: url(#linear-gradient);
      }
    </style>
    <linearGradient id="linear-gradient" x2="0" y2="1" gradientUnits="objectBoundingBox">
      <stop offset="0" stop-color="#669ed9"/>
      <stop offset="1" stop-color="#4272a4"/>
    </linearGradient>
  </defs>
  <path id="Union_40" data-name="Union 40" class="cls-1" d="M5599.147-4716.516a2.554,2.554,0,0,0,1.328-2.693A7.062,7.062,0,0,1,5598-4724.5c0-4.142,3.8-7.5,8.5-7.5s8.5,3.358,8.5,7.5-3.806,7.5-8.5,7.5a9.485,9.485,0,0,1-2.968-.47,6.135,6.135,0,0,1-3.421,1.041A4.642,4.642,0,0,1,5599.147-4716.516Z" transform="translate(-1311.001 5912.5)"/>
</svg>
