<svg xmlns="http://www.w3.org/2000/svg" viewBox="-4820.75 10991.75 18.5 17.076">
  <defs>
    <style>
      .cls-1 {
        fill: transparent;
        stroke-width: 1.5px;
      }
    </style>
  </defs>
  <g transform="translate(-5536 10259.5)">
    <path class="cls-1" stroke="#000" d="M5599.147-4716.509a13.756,13.756,0,0,0,.95-3.058,6.991,6.991,0,0,1-2.1-4.934c0-4.142,3.8-7.5,8.5-7.5s8.5,3.358,8.5,7.5-3.806,7.5-8.5,7.5a9.5,9.5,0,0,1-2.968-.47,6.152,6.152,0,0,1-3.433,1.046A4.607,4.607,0,0,1,5599.147-4716.509Z" transform="translate(-4882 5465)"/>
    <circle fill="#000" cx="1" cy="1" r="1" transform="translate(719.6 739.5)"/>
    <circle fill="#000" cx="1" cy="1" r="1" transform="translate(723.6 739.5)"/>
    <circle fill="#000" cx="1" cy="1" r="1" transform="translate(727.6 739.5)"/>
  </g>
</svg>
