<svg class="apex__svg" xmlns="http://www.w3.org/2000/svg" viewBox="0 0 47 46" fill="#272727">
    <path d="M40.32,10.26A20.8,20.8,0,0,0,26.56,4.18a2.8,2.8,0,0,0-.8-2.32L24.87,1A3.14,3.14,0,0,0,23,0H16.86a4.28,4.28,0,0,0-2.69,1.47L1.87,13.76A4,4,0,0,0,.46,16.38v6.14a3.21,3.21,0,0,0,.9,1.93l.89.89a2.81,2.81,0,0,0,2.33.79A21,21,0,1,0,40.32,10.26ZM17,4.67a1.92,1.92,0,1,1-1.92,1.92A1.92,1.92,0,0,1,17,4.67ZM6.73,14.91a1.92,1.92,0,1,1-1.92,1.92A1.92,1.92,0,0,1,6.73,14.91Zm32.2,23.58a19,19,0,0,1-26.88,0,18.84,18.84,0,0,1-5.57-13.4l8.76-8.75A1.46,1.46,0,1,0,16.8,14.8l8.71-8.7a18.8,18.8,0,0,1,13.43,5.55A19,19,0,0,1,38.94,38.49Z"></path>
    <path d="M31,19.62a7.71,7.71,0,1,0,0,10.9A7.67,7.67,0,0,0,31,19.62Zm-1.39,9.52a5.75,5.75,0,1,1,0-8.13A5.73,5.73,0,0,1,29.57,29.14Z"></path>
    <circle cx="37.74" cy="25" r="1.46"></circle>
    <circle cx="13.19" cy="25" r="1.46"></circle>
    <circle cx="25.47" cy="12.74" r="1.46"></circle>
    <circle cx="25.47" cy="37.25" r="1.46"></circle>
    <circle cx="34.23" cy="16.25" r="1.46"></circle>
    <circle cx="16.7" cy="33.75" r="1.46"></circle>
    <circle cx="34.23" cy="33.75" r="1.46"></circle>
</svg>