<svg xmlns="http://www.w3.org/2000/svg" viewBox="5440.5 523.5 12 12">
  <defs>
    <style>
      .cls-1 {
        fill: none;
        stroke: #8798a4;
        stroke-width: 1.5px;
      }
    </style>
  </defs>
  <g id="Group_1132" data-name="Group 1132" transform="translate(5301 307)">
    <line id="Line_212" data-name="Line 212" class="cls-1" x2="12" transform="translate(139.5 222.5)"/>
    <line id="Line_213" data-name="Line 213" class="cls-1" y2="12" transform="translate(145.5 216.5)"/>
  </g>
</svg>
